[api-updater (non-obsolete-error-filter)] 5/21/2021 12:38:50 AM : Starting D:/Unity/2020.3.7f1/Editor/Data/Tools/ScriptUpdater/APIUpdater.NonObsoleteApiUpdaterDetector.exe
[api-updater (non-obsolete-error-filter)] 
----------------------------------
jit/startup time      : 455.1751ms
moved types parse time: 64ms
candidates parse time : 1ms
C# parse time         : 207ms
candidates check time : 78ms
console write time    : 0ms

[api-updater (non-obsolete-error-filter)] 5/21/2021 3:15:12 AM : Starting D:/Unity/2020.3.7f1/Editor/Data/Tools/ScriptUpdater/APIUpdater.NonObsoleteApiUpdaterDetector.exe
[api-updater (non-obsolete-error-filter)] 
----------------------------------
jit/startup time      : 2591.7385ms
moved types parse time: 68ms
candidates parse time : 1ms
C# parse time         : 964ms
candidates check time : 58ms
console write time    : 0ms

[api-updater (non-obsolete-error-filter)] 5/21/2021 1:23:16 PM : Starting D:/Unity/2020.3.7f1/Editor/Data/Tools/ScriptUpdater/APIUpdater.NonObsoleteApiUpdaterDetector.exe
[api-updater (non-obsolete-error-filter)] Exception caught while loading types from D:\Unity\Project (1)\Library\ScriptAssemblies\Unity.TextMeshPro.Editor.dll (some types may not be loaded)
	Exception of type 'System.Reflection.ReflectionTypeLoadException' was thrown.
	  at (wrapper managed-to-native) System.Reflection.Assembly.GetTypes(System.Reflection.Assembly,bool)
  at System.Reflection.Assembly.GetTypes () [0x00000] in <695d1cc93cca45069c528c15c9fdd749>:0 
  at APIUpdater.NonObsoleteApiUpdaterDetector.ExtraInfoParser+<LoadTypesWithMovedFromAttributeAsync>d__3.MoveNext () [0x000c8] in <68bff7873e0e4aa69a14dfc30bebbe3e>:0 
	Could not load file or assembly 'UnityEditor.CoreModule, Version=0.0.0.0, Culture=neutral, PublicKeyToken=null' or one of its dependencies.

[api-updater (non-obsolete-error-filter)] 
----------------------------------
jit/startup time      : 2330.0972ms
moved types parse time: 94ms
candidates parse time : 1ms
C# parse time         : 249ms
candidates check time : 53ms
console write time    : 0ms

